 _   _ _     _              _   
| |_(_) | __| | ___   _ __ | |_
| __| | |/ _` |/ _ \ | '_ \| __|
| |_| | | (_| |  __/_| |_) | |_
\__|_|_|\__,_|\___(_) .__/ \__|
                    |_|
uma nuvem artesanal
em território nacional
